{
  "exports": ["*"],
  "compile": {
    "externs": [
      "externs/bingmaps.js",
      "externs/closure-compiler.js",
      "externs/geojson.js",
      "externs/oli.js",
      "externs/olx.js",
      "externs/proj4js.js",
      "externs/tilejson.js",
      "externs/topojson.js",
      "externs/vbarray.js"
    ],
    "define": [
      "goog.dom.ASSUME_STANDARDS_MODE=true",
      "goog.json.USE_NATIVE_JSON=true",
      "goog.DEBUG=false"
    ],
    "compilation_level": "SIMPLE",
    "output_wrapper": "(function(){%output%})() //# sourceMappingURL=ol.js.map",
    "export_local_property_definitions": true,
    "generate_exports": true,
    "use_types_for_optimization": false,
    "manage_closure_dependencies": false,
    "create_source_map": "build/ol.js.map"
  }
}
